{
    "annotations": {
      "list": [
        {
          "$$hashKey": "object:9231",
          "builtIn": 1,
          "datasource": "-- Grafana --",
          "enable": true,
          "hide": true,
          "iconColor": "rgba(0, 211, 255, 1)",
          "name": "Annotations & Alerts",
          "type": "dashboard"
        }
      ]
    },
    "editable": true,
    "gnetId": null,
    "graphTooltip": 1,
    "id": 3,
    "iteration": 1531981891316,
    "links": [
      {
        "icon": "external link",
        "tags": [],
        "targetBlank": true,
        "title": "linkerd.io",
        "type": "link",
        "url": "https://linkerd.io"
      }
    ],
    "panels": [
      {
        "collapsed": false,
        "gridPos": {
          "h": 1,
          "w": 24,
          "x": 0,
          "y": 0
        },
        "id": 55,
        "panels": [],
        "repeat": null,
        "title": "title row",
        "type": "row"
      },
      {
        "content": "<div>\n  <div style=\"position: absolute; bottom: 0\">\n    <a href=\"https://linkerd.io\" target=\"_blank\"><img src=\"https://linkerd.io/images/logo-100h.png\" style=\"height: 40px;\"></a>\n  </div>\n  <div style=\"position: absolute; bottom: 0; right: 0; font-size: 15px\">\n    linkerd enables\n    <a href=\"https://linkerd.io/in-depth/concepts/#service-discovery\" target=\"_blank\">service discovery</a>,\n    <a href=\"https://linkerd.io/in-depth/routing/\" target=\"_blank\">routing</a>, and\n    <a href=\"https://linkerd.io/in-depth/routing/#load-balancing\" target=\"_blank\">load balancing</a>.\n    <a href=\"https://linkerd.io/getting-started/\" target=\"_blank\">Learn more &raquo;</a>\n    <br>\n    Need help? Join us on <a href=\"http://slack.linkerd.io\" target=\"_blank\">the linkerd Slack</a>.\n  </div>\n</div>\n",
        "editable": true,
        "error": false,
        "gridPos": {
          "h": 3,
          "w": 24,
          "x": 0,
          "y": 1
        },
        "id": 20,
        "links": [],
        "mode": "html",
        "title": "",
        "transparent": true,
        "type": "text"
      },
      {
        "collapsed": false,
        "gridPos": {
          "h": 1,
          "w": 24,
          "x": 0,
          "y": 4
        },
        "id": 56,
        "panels": [],
        "repeat": null,
        "title": "gauges",
        "type": "row"
      },
      {
        "cacheTimeout": null,
        "colorBackground": false,
        "colorValue": false,
        "colors": [
          "rgba(245, 54, 54, 0.9)",
          "rgba(237, 129, 40, 0.89)",
          "rgba(50, 172, 45, 0.97)"
        ],
        "datasource": "prometheus",
        "editable": true,
        "error": false,
        "format": "none",
        "gauge": {
          "maxValue": 100,
          "minValue": 0,
          "show": false,
          "thresholdLabels": false,
          "thresholdMarkers": true
        },
        "gridPos": {
          "h": 4,
          "w": 4,
          "x": 0,
          "y": 5
        },
        "id": 50,
        "interval": null,
        "links": [],
        "mappingType": 1,
        "mappingTypes": [
          {
            "name": "value to text",
            "value": 1
          },
          {
            "name": "range to text",
            "value": 2
          }
        ],
        "maxDataPoints": 100,
        "minSpan": 4,
        "nullPointMode": "connected",
        "nullText": null,
        "postfix": "",
        "postfixFontSize": "50%",
        "prefix": "",
        "prefixFontSize": "50%",
        "rangeMaps": [
          {
            "from": "null",
            "text": "N/A",
            "to": "null"
          }
        ],
        "sparkline": {
          "fillColor": "rgba(31, 118, 189, 0.18)",
          "full": false,
          "lineColor": "rgb(31, 120, 193)",
          "show": false
        },
        "tableColumn": "",
        "targets": [
          {
            "expr": "count(count(rt:client:requests{rt=\"$router\"}) by (client))",
            "format": "time_series",
            "intervalFactor": 1,
            "legendFormat": "",
            "refId": "A",
            "step": 4
          }
        ],
        "thresholds": "",
        "title": "Services Monitored",
        "type": "singlestat",
        "valueFontSize": "150%",
        "valueMaps": [
          {
            "op": "=",
            "text": "N/A",
            "value": "null"
          }
        ],
        "valueName": "current"
      },
      {
        "cacheTimeout": null,
        "colorBackground": false,
        "colorValue": false,
        "colors": [
          "rgba(245, 54, 54, 0.9)",
          "rgba(237, 129, 40, 0.89)",
          "rgba(50, 172, 45, 0.97)"
        ],
        "datasource": "prometheus",
        "editable": true,
        "error": false,
        "format": "none",
        "gauge": {
          "maxValue": 100,
          "minValue": 0,
          "show": false,
          "thresholdLabels": false,
          "thresholdMarkers": true
        },
        "gridPos": {
          "h": 4,
          "w": 4,
          "x": 4,
          "y": 5
        },
        "id": 49,
        "interval": null,
        "links": [],
        "mappingType": 1,
        "mappingTypes": [
          {
            "name": "value to text",
            "value": 1
          },
          {
            "name": "range to text",
            "value": 2
          }
        ],
        "maxDataPoints": 100,
        "minSpan": 4,
        "nullPointMode": "connected",
        "nullText": null,
        "postfix": "",
        "postfixFontSize": "50%",
        "prefix": "",
        "prefixFontSize": "50%",
        "rangeMaps": [
          {
            "from": "null",
            "text": "N/A",
            "to": "null"
          }
        ],
        "sparkline": {
          "fillColor": "rgba(31, 118, 189, 0.18)",
          "full": false,
          "lineColor": "rgb(31, 120, 193)",
          "show": false
        },
        "tableColumn": "",
        "targets": [
          {
            "expr": "count(count(jvm:uptime) by(instance))",
            "format": "time_series",
            "intervalFactor": 1,
            "legendFormat": "",
            "refId": "A",
            "step": 4
          }
        ],
        "thresholds": "",
        "title": "linkerd Instances",
        "transparent": false,
        "type": "singlestat",
        "valueFontSize": "150%",
        "valueMaps": [
          {
            "op": "=",
            "text": "N/A",
            "value": "null"
          }
        ],
        "valueName": "current"
      },
      {
        "cacheTimeout": null,
        "colorBackground": false,
        "colorValue": true,
        "colors": [
          "rgba(245, 54, 54, 0.9)",
          "rgba(237, 129, 40, 0.89)",
          "rgba(50, 172, 45, 0.97)"
        ],
        "datasource": "prometheus",
        "decimals": null,
        "editable": true,
        "error": false,
        "format": "percentunit",
        "gauge": {
          "maxValue": 1,
          "minValue": 0,
          "show": true,
          "thresholdLabels": false,
          "thresholdMarkers": true
        },
        "gridPos": {
          "h": 4,
          "w": 4,
          "x": 8,
          "y": 5
        },
        "id": 48,
        "interval": null,
        "links": [],
        "mappingType": 1,
        "mappingTypes": [
          {
            "name": "value to text",
            "value": 1
          },
          {
            "name": "range to text",
            "value": 2
          }
        ],
        "maxDataPoints": 100,
        "minSpan": 4,
        "nullPointMode": "connected",
        "nullText": null,
        "postfix": "",
        "postfixFontSize": "50%",
        "prefix": "",
        "prefixFontSize": "50%",
        "rangeMaps": [
          {
            "from": "null",
            "text": "N/A",
            "to": "null"
          }
        ],
        "sparkline": {
          "fillColor": "rgba(31, 118, 189, 0.18)",
          "full": true,
          "lineColor": "rgb(31, 120, 193)",
          "show": true
        },
        "tableColumn": "",
        "targets": [
          {
            "expr": "sum(irate(rt:client:success{rt=\"$router\"}[1m])) / sum(irate(rt:client:requests{rt=\"$router\"}[1m]))",
            "format": "time_series",
            "intervalFactor": 1,
            "legendFormat": "",
            "refId": "A",
            "step": 4
          }
        ],
        "thresholds": ".5,.8",
        "title": "Global Success Rate",
        "type": "singlestat",
        "valueFontSize": "80%",
        "valueMaps": [
          {
            "op": "=",
            "text": "N/A",
            "value": "null"
          }
        ],
        "valueName": "current"
      },
      {
        "cacheTimeout": null,
        "colorBackground": false,
        "colorValue": false,
        "colors": [
          "rgba(245, 54, 54, 0.9)",
          "rgba(237, 129, 40, 0.89)",
          "rgba(50, 172, 45, 0.97)"
        ],
        "datasource": "prometheus",
        "editable": true,
        "error": false,
        "format": "rps",
        "gauge": {
          "maxValue": 100,
          "minValue": 0,
          "show": false,
          "thresholdLabels": false,
          "thresholdMarkers": true
        },
        "gridPos": {
          "h": 4,
          "w": 4,
          "x": 12,
          "y": 5
        },
        "id": 51,
        "interval": null,
        "links": [],
        "mappingType": 1,
        "mappingTypes": [
          {
            "name": "value to text",
            "value": 1
          },
          {
            "name": "range to text",
            "value": 2
          }
        ],
        "maxDataPoints": 100,
        "nullPointMode": "connected",
        "nullText": null,
        "postfix": "",
        "postfixFontSize": "50%",
        "prefix": "",
        "prefixFontSize": "50%",
        "rangeMaps": [
          {
            "from": "null",
            "text": "N/A",
            "to": "null"
          }
        ],
        "sparkline": {
          "fillColor": "rgba(31, 118, 189, 0.18)",
          "full": true,
          "lineColor": "rgb(31, 120, 193)",
          "show": true
        },
        "tableColumn": "",
        "targets": [
          {
            "expr": "sum(irate(rt:client:requests{rt=\"$router\"}[1m]))",
            "format": "time_series",
            "intervalFactor": 1,
            "legendFormat": "",
            "refId": "A",
            "step": 4
          }
        ],
        "thresholds": "",
        "title": "Global Request Volume",
        "type": "singlestat",
        "valueFontSize": "70%",
        "valueMaps": [
          {
            "op": "=",
            "text": "N/A",
            "value": "null"
          }
        ],
        "valueName": "current"
      },
      {
        "cacheTimeout": null,
        "colorBackground": false,
        "colorValue": false,
        "colors": [
          "rgba(245, 54, 54, 0.9)",
          "rgba(237, 129, 40, 0.89)",
          "rgba(50, 172, 45, 0.97)"
        ],
        "datasource": "prometheus",
        "editable": true,
        "error": false,
        "format": "rps",
        "gauge": {
          "maxValue": 100,
          "minValue": 0,
          "show": false,
          "thresholdLabels": false,
          "thresholdMarkers": true
        },
        "gridPos": {
          "h": 4,
          "w": 4,
          "x": 16,
          "y": 5
        },
        "id": 52,
        "interval": null,
        "links": [],
        "mappingType": 1,
        "mappingTypes": [
          {
            "name": "value to text",
            "value": 1
          },
          {
            "name": "range to text",
            "value": 2
          }
        ],
        "maxDataPoints": 100,
        "minSpan": 4,
        "nullPointMode": "connected",
        "nullText": null,
        "postfix": "",
        "postfixFontSize": "50%",
        "prefix": "",
        "prefixFontSize": "50%",
        "rangeMaps": [
          {
            "from": "null",
            "text": "N/A",
            "to": "null"
          }
        ],
        "sparkline": {
          "fillColor": "rgba(31, 118, 189, 0.18)",
          "full": true,
          "lineColor": "rgb(31, 120, 193)",
          "show": true
        },
        "tableColumn": "",
        "targets": [
          {
            "expr": "sum(irate(rt:client:status:4XX{rt=\"$router\"}[1m]))",
            "format": "time_series",
            "intervalFactor": 1,
            "refId": "A",
            "step": 4
          }
        ],
        "thresholds": "",
        "title": "4XX Errors",
        "type": "singlestat",
        "valueFontSize": "70%",
        "valueMaps": [
          {
            "op": "=",
            "text": "N/A",
            "value": "null"
          }
        ],
        "valueName": "current"
      },
      {
        "cacheTimeout": null,
        "colorBackground": false,
        "colorValue": false,
        "colors": [
          "rgba(245, 54, 54, 0.9)",
          "rgba(237, 129, 40, 0.89)",
          "rgba(50, 172, 45, 0.97)"
        ],
        "datasource": "prometheus",
        "editable": true,
        "error": false,
        "format": "rps",
        "gauge": {
          "maxValue": 100,
          "minValue": 0,
          "show": false,
          "thresholdLabels": false,
          "thresholdMarkers": true
        },
        "gridPos": {
          "h": 4,
          "w": 4,
          "x": 20,
          "y": 5
        },
        "id": 53,
        "interval": null,
        "links": [],
        "mappingType": 1,
        "mappingTypes": [
          {
            "name": "value to text",
            "value": 1
          },
          {
            "name": "range to text",
            "value": 2
          }
        ],
        "maxDataPoints": 100,
        "minSpan": 4,
        "nullPointMode": "connected",
        "nullText": null,
        "postfix": "",
        "postfixFontSize": "50%",
        "prefix": "",
        "prefixFontSize": "50%",
        "rangeMaps": [
          {
            "from": "null",
            "text": "N/A",
            "to": "null"
          }
        ],
        "sparkline": {
          "fillColor": "rgba(31, 118, 189, 0.18)",
          "full": true,
          "lineColor": "rgb(31, 120, 193)",
          "show": true
        },
        "tableColumn": "",
        "targets": [
          {
            "expr": "sum(irate(rt:client:status:5XX{rt=\"$router\"}[1m]))",
            "format": "time_series",
            "intervalFactor": 1,
            "refId": "A",
            "step": 4
          }
        ],
        "thresholds": "",
        "title": "5XX Errors",
        "type": "singlestat",
        "valueFontSize": "70%",
        "valueMaps": [
          {
            "op": "=",
            "text": "N/A",
            "value": "null"
          }
        ],
        "valueName": "current"
      },
      {
        "collapsed": false,
        "gridPos": {
          "h": 1,
          "w": 24,
          "x": 0,
          "y": 9
        },
        "id": 57,
        "panels": [],
        "repeat": null,
        "title": "top line",
        "type": "row"
      },
      {
        "content": "<div class=\"text-center dashboard-header\">\n  <span>TOP LINE</span>\n</div>\n",
        "editable": true,
        "error": false,
        "gridPos": {
          "h": 3,
          "w": 24,
          "x": 0,
          "y": 10
        },
        "height": "1px",
        "id": 33,
        "links": [],
        "minSpan": 24,
        "mode": "html",
        "title": "",
        "transparent": true,
        "type": "text"
      },
      {
        "aliasColors": {},
        "bars": false,
        "dashLength": 10,
        "dashes": false,
        "datasource": "prometheus",
        "decimals": null,
        "editable": true,
        "error": false,
        "fill": 1,
        "grid": {},
        "gridPos": {
          "h": 7,
          "w": 8,
          "x": 0,
          "y": 13
        },
        "id": 34,
        "legend": {
          "avg": false,
          "current": false,
          "max": false,
          "min": false,
          "show": false,
          "total": false,
          "values": false
        },
        "lines": true,
        "linewidth": 2,
        "links": [],
        "minSpan": 8,
        "nullPointMode": "connected",
        "percentage": false,
        "pointradius": 5,
        "points": false,
        "renderer": "flot",
        "seriesOverrides": [],
        "spaceLength": 10,
        "stack": false,
        "steppedLine": false,
        "targets": [
          {
            "expr": "round(sum(irate(rt:client:success{rt=\"$router\",client=~\"$service\",instance=~\"$instance\"}[1m])) by (client) / sum(irate(rt:client:requests{rt=\"$router\", client=~\"$service\",instance=~\"$instance\"}[1m])) by (client), .0001)",
            "format": "time_series",
            "intervalFactor": 1,
            "legendFormat": "{{client}}",
            "refId": "A",
            "step": 2
          }
        ],
        "thresholds": [],
        "timeFrom": null,
        "timeShift": null,
        "title": "Success Rates",
        "tooltip": {
          "msResolution": false,
          "shared": true,
          "sort": 1,
          "value_type": "cumulative"
        },
        "type": "graph",
        "xaxis": {
          "buckets": null,
          "mode": "time",
          "name": null,
          "show": true,
          "values": []
        },
        "yaxes": [
          {
            "format": "percentunit",
            "label": null,
            "logBase": 1,
            "max": 1,
            "min": null,
            "show": true
          },
          {
            "format": "short",
            "label": null,
            "logBase": 1,
            "max": null,
            "min": null,
            "show": false
          }
        ],
        "yaxis": {
          "align": false,
          "alignLevel": null
        }
      },
      {
        "aliasColors": {},
        "bars": false,
        "dashLength": 10,
        "dashes": false,
        "datasource": "prometheus",
        "editable": true,
        "error": false,
        "fill": 1,
        "grid": {},
        "gridPos": {
          "h": 7,
          "w": 8,
          "x": 8,
          "y": 13
        },
        "id": 35,
        "legend": {
          "avg": false,
          "current": false,
          "max": false,
          "min": false,
          "show": false,
          "total": false,
          "values": false
        },
        "lines": true,
        "linewidth": 2,
        "links": [],
        "minSpan": 8,
        "nullPointMode": "connected",
        "percentage": false,
        "pointradius": 5,
        "points": false,
        "renderer": "flot",
        "seriesOverrides": [],
        "spaceLength": 10,
        "stack": false,
        "steppedLine": false,
        "targets": [
          {
            "expr": "sum(irate(rt:client:requests{rt=\"$router\",client=~\"$service\",instance=~\"$instance\"}[1m])) by (client)",
            "format": "time_series",
            "intervalFactor": 1,
            "legendFormat": "{{client}}",
            "refId": "A",
            "step": 2
          }
        ],
        "thresholds": [],
        "timeFrom": null,
        "timeShift": null,
        "title": "Request Volumes",
        "tooltip": {
          "msResolution": false,
          "shared": true,
          "sort": 2,
          "value_type": "cumulative"
        },
        "type": "graph",
        "xaxis": {
          "buckets": null,
          "mode": "time",
          "name": null,
          "show": true,
          "values": []
        },
        "yaxes": [
          {
            "format": "rps",
            "label": null,
            "logBase": 1,
            "max": null,
            "min": null,
            "show": true
          },
          {
            "format": "short",
            "label": null,
            "logBase": 1,
            "max": null,
            "min": null,
            "show": false
          }
        ],
        "yaxis": {
          "align": false,
          "alignLevel": null
        }
      },
      {
        "aliasColors": {},
        "bars": false,
        "dashLength": 10,
        "dashes": false,
        "datasource": "prometheus",
        "editable": true,
        "error": false,
        "fill": 1,
        "grid": {},
        "gridPos": {
          "h": 7,
          "w": 8,
          "x": 16,
          "y": 13
        },
        "id": 54,
        "legend": {
          "alignAsTable": false,
          "avg": false,
          "current": false,
          "max": false,
          "min": false,
          "rightSide": false,
          "show": false,
          "total": false,
          "values": false
        },
        "lines": true,
        "linewidth": 2,
        "links": [],
        "nullPointMode": "connected",
        "percentage": false,
        "pointradius": 5,
        "points": false,
        "renderer": "flot",
        "seriesOverrides": [],
        "spaceLength": 10,
        "stack": false,
        "steppedLine": false,
        "targets": [
          {
            "expr": "max(rt:client:request_latency_ms{rt=\"$router\",quantile=\"0.95\",client=~\"$service\",instance=~\"$instance\"}) by (client)",
            "format": "time_series",
            "intervalFactor": 1,
            "legendFormat": "p95_{{client}}",
            "refId": "A",
            "step": 2
          },
          {
            "expr": "max(rt:client:request_latency_ms{rt=\"$router\",quantile=\"0.99\",client=~\"$service\",instance=~\"$instance\"}) by (client)",
            "format": "time_series",
            "intervalFactor": 1,
            "legendFormat": "p99_{{client}}",
            "refId": "B",
            "step": 2
          },
          {
            "expr": "max(rt:client:request_latency_ms{rt=\"$router\",quantile=\"1\",client=~\"$service\",instance=~\"$instance\"}) by (client)",
            "format": "time_series",
            "intervalFactor": 1,
            "legendFormat": "max_{{client}}",
            "refId": "C",
            "step": 2
          }
        ],
        "thresholds": [],
        "timeFrom": null,
        "timeShift": null,
        "title": "Latency",
        "tooltip": {
          "msResolution": false,
          "shared": true,
          "sort": 2,
          "value_type": "cumulative"
        },
        "type": "graph",
        "xaxis": {
          "buckets": null,
          "mode": "time",
          "name": null,
          "show": true,
          "values": []
        },
        "yaxes": [
          {
            "format": "ms",
            "label": null,
            "logBase": 1,
            "max": null,
            "min": null,
            "show": true
          },
          {
            "format": "short",
            "label": null,
            "logBase": 1,
            "max": null,
            "min": null,
            "show": true
          }
        ],
        "yaxis": {
          "align": false,
          "alignLevel": null
        }
      },
      {
        "collapsed": false,
        "gridPos": {
          "h": 1,
          "w": 24,
          "x": 0,
          "y": 20
        },
        "id": 58,
        "panels": [],
        "repeat": null,
        "title": "service metrics",
        "type": "row"
      },
      {
        "content": "<div class=\"text-center dashboard-header\">\n  <span>SERVICE METRICS</span>\n</div>\n",
        "editable": true,
        "error": false,
        "gridPos": {
          "h": 3,
          "w": 24,
          "x": 0,
          "y": 21
        },
        "height": "1px",
        "id": 12,
        "links": [],
        "minSpan": 24,
        "mode": "html",
        "title": "",
        "transparent": true,
        "type": "text"
      },
      {
        "collapsed": false,
        "gridPos": {
          "h": 1,
          "w": 24,
          "x": 0,
          "y": 24
        },
        "id": 60,
        "panels": [],
        "repeat": null,
        "title": "per linkerd metrics",
        "type": "row"
      },
      {
        "content": "<div class=\"text-center dashboard-header\">\n  <span>PER-INSTANCE METRICS</span>\n</div>\n",
        "editable": true,
        "error": false,
        "gridPos": {
          "h": 3,
          "w": 24,
          "x": 0,
          "y": 25
        },
        "height": "10px",
        "id": 7,
        "links": [],
        "mode": "html",
        "title": "",
        "transparent": true,
        "type": "text"
      },
      {
        "aliasColors": {},
        "bars": false,
        "dashLength": 10,
        "dashes": false,
        "datasource": "prometheus",
        "editable": true,
        "error": false,
        "fill": 1,
        "grid": {},
        "gridPos": {
          "h": 7,
          "w": 8,
          "x": 0,
          "y": 28
        },
        "height": "250px",
        "id": 10,
        "legend": {
          "avg": false,
          "current": false,
          "max": false,
          "min": false,
          "show": false,
          "total": false,
          "values": false
        },
        "lines": true,
        "linewidth": 2,
        "links": [],
        "minSpan": 8,
        "nullPointMode": "connected",
        "percentage": false,
        "pointradius": 5,
        "points": false,
        "renderer": "flot",
        "seriesOverrides": [],
        "spaceLength": 10,
        "stack": false,
        "steppedLine": false,
        "targets": [
          {
            "expr": "round(sum(irate(rt:server:success{rt=\"$router\",instance=~\"$instance\"}[1m])) by (instance) / sum(irate(rt:server:requests{rt=\"$router\",instance=~\"$instance\"}[1m])) by (instance), .0001)",
            "format": "time_series",
            "intervalFactor": 1,
            "legendFormat": "{{instance}}",
            "refId": "A",
            "step": 2
          }
        ],
        "thresholds": [],
        "timeFrom": null,
        "timeShift": null,
        "title": "Success Rate",
        "tooltip": {
          "msResolution": false,
          "shared": true,
          "sort": 1,
          "value_type": "cumulative"
        },
        "type": "graph",
        "xaxis": {
          "buckets": null,
          "mode": "time",
          "name": null,
          "show": true,
          "values": []
        },
        "yaxes": [
          {
            "format": "percentunit",
            "label": "",
            "logBase": 1,
            "max": 1,
            "min": null,
            "show": true
          },
          {
            "format": "short",
            "label": null,
            "logBase": 1,
            "max": null,
            "min": null,
            "show": false
          }
        ],
        "yaxis": {
          "align": false,
          "alignLevel": null
        }
      },
      {
        "aliasColors": {},
        "bars": false,
        "dashLength": 10,
        "dashes": false,
        "datasource": "prometheus",
        "editable": true,
        "error": false,
        "fill": 1,
        "grid": {},
        "gridPos": {
          "h": 7,
          "w": 8,
          "x": 8,
          "y": 28
        },
        "height": "250px",
        "id": 11,
        "legend": {
          "avg": false,
          "current": false,
          "max": false,
          "min": false,
          "show": false,
          "total": false,
          "values": false
        },
        "lines": true,
        "linewidth": 2,
        "links": [],
        "minSpan": 8,
        "nullPointMode": "connected",
        "percentage": false,
        "pointradius": 5,
        "points": false,
        "renderer": "flot",
        "seriesOverrides": [],
        "spaceLength": 10,
        "stack": false,
        "steppedLine": false,
        "targets": [
          {
            "expr": "sum(irate(rt:server:requests{rt=\"$router\",instance=~\"$instance\"}[1m])) by (instance)",
            "format": "time_series",
            "intervalFactor": 1,
            "legendFormat": "{{instance}}",
            "refId": "A",
            "step": 2
          }
        ],
        "thresholds": [],
        "timeFrom": null,
        "timeShift": null,
        "title": "Request Volume",
        "tooltip": {
          "msResolution": false,
          "shared": true,
          "sort": 2,
          "value_type": "individual"
        },
        "type": "graph",
        "xaxis": {
          "buckets": null,
          "mode": "time",
          "name": null,
          "show": true,
          "values": []
        },
        "yaxes": [
          {
            "format": "rps",
            "label": null,
            "logBase": 1,
            "max": null,
            "min": null,
            "show": true
          },
          {
            "format": "short",
            "label": null,
            "logBase": 1,
            "max": null,
            "min": null,
            "show": false
          }
        ],
        "yaxis": {
          "align": false,
          "alignLevel": null
        }
      },
      {
        "aliasColors": {},
        "bars": false,
        "dashLength": 10,
        "dashes": false,
        "datasource": "prometheus",
        "editable": true,
        "error": false,
        "fill": 1,
        "grid": {},
        "gridPos": {
          "h": 7,
          "w": 8,
          "x": 16,
          "y": 28
        },
        "height": "250px",
        "id": 8,
        "legend": {
          "avg": false,
          "current": false,
          "max": false,
          "min": false,
          "show": false,
          "total": false,
          "values": false
        },
        "lines": true,
        "linewidth": 2,
        "links": [],
        "minSpan": 8,
        "nullPointMode": "connected",
        "percentage": false,
        "pointradius": 5,
        "points": false,
        "renderer": "flot",
        "seriesOverrides": [],
        "spaceLength": 10,
        "stack": false,
        "steppedLine": false,
        "targets": [
          {
            "expr": "rt:server:request_latency_ms{rt=\"$router\",quantile=\"0.95\",instance=~\"$instance\"}",
            "format": "time_series",
            "hide": false,
            "interval": "",
            "intervalFactor": 1,
            "legendFormat": "p95_{{instance}}",
            "refId": "A",
            "step": 2
          },
          {
            "expr": "rt:server:request_latency_ms{rt=\"$router\",quantile=\"0.99\",instance=~\"$instance\"}",
            "format": "time_series",
            "intervalFactor": 1,
            "legendFormat": "p99_{{instance}}",
            "refId": "B",
            "step": 2
          },
          {
            "expr": "rt:server:request_latency_ms{rt=\"$router\",quantile=\"1\",instance=~\"$instance\"}",
            "format": "time_series",
            "intervalFactor": 1,
            "legendFormat": "max_{{instance}}",
            "refId": "C",
            "step": 2
          }
        ],
        "thresholds": [],
        "timeFrom": null,
        "timeShift": null,
        "title": "Latency",
        "tooltip": {
          "msResolution": false,
          "shared": true,
          "sort": 2,
          "value_type": "cumulative"
        },
        "type": "graph",
        "xaxis": {
          "buckets": null,
          "mode": "time",
          "name": null,
          "show": true,
          "values": []
        },
        "yaxes": [
          {
            "format": "ms",
            "label": "",
            "logBase": 1,
            "max": null,
            "min": null,
            "show": true
          },
          {
            "format": "short",
            "label": "",
            "logBase": 1,
            "max": null,
            "min": null,
            "show": false
          }
        ],
        "yaxis": {
          "align": false,
          "alignLevel": null
        }
      }
    ],
    "refresh": "1m",
    "schemaVersion": 16,
    "style": "dark",
    "tags": [],
    "templating": {
      "list": [
        {
          "allValue": null,
          "current": {
            "text": "outgoing",
            "value": "outgoing"
          },
          "datasource": "prometheus",
          "hide": 0,
          "includeAll": false,
          "label": null,
          "multi": false,
          "name": "router",
          "options": [],
          "query": "label_values(rt)",
          "refresh": 2,
          "regex": "",
          "sort": 1,
          "tagValuesQuery": "",
          "tags": [],
          "tagsQuery": "",
          "type": "query",
          "useTags": false
        },
        {
          "allValue": null,
          "current": {
            "text": "All",
            "value": [
              "$__all"
            ]
          },
          "datasource": "prometheus",
          "hide": 0,
          "includeAll": true,
          "label": null,
          "multi": true,
          "name": "service",
          "options": [],
          "query": "label_values(client)",
          "refresh": 2,
          "regex": "",
          "sort": 1,
          "tagValuesQuery": "",
          "tags": [],
          "tagsQuery": "",
          "type": "query",
          "useTags": false
        },
        {
          "allValue": null,
          "current": {
            "text": "All",
            "value": [
              "$__all"
            ]
          },
          "datasource": "prometheus",
          "hide": 0,
          "includeAll": true,
          "label": null,
          "multi": true,
          "name": "instance",
          "options": [],
          "query": "label_values(instance)",
          "refresh": 2,
          "regex": "",
          "sort": 1,
          "tagValuesQuery": "",
          "tags": [],
          "tagsQuery": "",
          "type": "query",
          "useTags": false
        }
      ]
    },
    "time": {
      "from": "now-5m",
      "to": "now"
    },
    "timepicker": {
      "refresh_intervals": [
        "5s",
        "10s",
        "30s",
        "1m",
        "5m",
        "15m",
        "30m",
        "1h",
        "2h",
        "1d"
      ],
      "time_options": [
        "5m",
        "15m",
        "1h",
        "6h",
        "12h",
        "24h",
        "2d",
        "7d",
        "30d"
      ]
    },
    "timezone": "browser",
    "title": "linkerd",
    "uid": "A2aMduOmk",
    "version": 21
  }